Division,WeightClassKg,Place,Name,Team,BodyweightKg,Best3SquatKg,Best3BenchKg,Best3DeadliftKg,TotalKg,Equipment,Event,Sex,BirthDate
Girls,44.23,1,Veyda Baena,Sealy,42.64,90.72,36.29,102.06,229.06,Unlimited,SBD,F,
Girls,44.23,2,Miriam Villalobos,Columbus,43.68,61.23,31.75,72.57,165.56,Unlimited,SBD,F,
Girls,44.23,3,Kimber Austin,La Grange,43.91,56.7,24.95,58.97,140.61,Unlimited,SBD,F,
Girls,47.85,1,Mariah Torres,Sealy,46.72,102.06,38.56,83.91,224.53,Unlimited,SBD,F,
Girls,47.85,2,Blanca Molina,Altair Rice,47.63,95.25,36.29,90.72,222.26,Unlimited,SBD,F,
Girls,47.85,3,Shyla Rodriguez,La Grange,47.31,81.65,43.09,90.72,215.46,Unlimited,SBD,F,
Girls,47.85,4,Bella DeBord,Hallettsville,47.63,81.65,45.36,81.65,208.65,Unlimited,SBD,F,
Girls,47.85,5,Camila Castillo,Altair Rice,47.63,68.04,34.02,88.45,190.51,Unlimited,SBD,F,
Girls,47.85,6,Jenna Kollmann,Sealy,46.72,70.31,52.16,47.63,170.1,Unlimited,SBD,F,
Girls,51.94,1,Taylor Eichelberger,Altair Rice,51.26,115.67,70.31,115.67,301.64,Unlimited,SBD,F,
Girls,51.94,2,Isabella Pittillo,Sealy,51.26,90.72,63.5,104.33,258.55,Unlimited,SBD,F,
Girls,51.94,3,Eleanor Rohan,La Grange,51.17,72.57,40.82,92.99,206.38,Unlimited,SBD,F,
Girls,51.94,4,Briana Estrada,Altair Rice,51.71,79.38,24.95,90.72,195.04,Unlimited,SBD,F,
Girls,51.94,DQ,Raynie Copley,Hallettsville,51.57,77.11,,,,Unlimited,SBD,F,
Girls,56.02,1,Raelee Nelson,Altair Rice,55.79,104.33,45.36,102.06,251.74,Unlimited,SBD,F,
Girls,56.02,2,Tate Griffin,Weimar,54.43,92.99,49.9,99.79,242.67,Unlimited,SBD,F,
Girls,56.02,3,Karyn James,Altair Rice,55.79,106.59,40.82,90.72,238.14,Unlimited,SBD,F,
Girls,56.02,4,Jenna Pohler,Shiner,55.97,102.06,36.29,99.79,238.14,Unlimited,SBD,F,
Girls,56.02,5,Kylynn Ramirez,Shiner,55.88,95.25,47.63,81.65,224.53,Unlimited,SBD,F,
Girls,56.02,DQ,Lacie Perez,Sealy,55.34,113.4,52.16,,,Unlimited,SBD,F,
Girls,56.02,DQ,Leilany Toriz,Altair Rice,53.52,,,,,Unlimited,SBD,F,
Girls,60.1,1,Ashley Treece,Weimar,58.97,136.08,70.31,131.54,337.93,Unlimited,SBD,F,
Girls,60.1,2,Nathaly Gutierrez,Brookshire Royal,58.97,104.33,29.48,106.59,240.4,Unlimited,SBD,F,
Girls,60.1,3,Avery Applewhite,Burton,59.6,74.84,54.43,111.13,240.4,Unlimited,SBD,F,
Girls,60.1,4,Ava Torres,Altair Rice,58.06,83.91,45.36,104.33,233.6,Unlimited,SBD,F,
Girls,60.1,5,Reyna Rodgers,Altair Rice,58.97,72.57,29.48,102.06,204.12,Unlimited,SBD,F,
Girls,60.1,6,Vanessa Villalobos,Columbus,56.25,77.11,36.29,72.57,185.97,Unlimited,SBD,F,
Girls,67.36,1,Olivia Cabrera,Weimar,65.32,127.01,72.57,127.01,326.59,Unlimited,SBD,F,
Girls,67.36,2,Kayla James,Altair Rice,63.05,113.4,70.31,122.47,306.17,Unlimited,SBD,F,
Girls,67.36,3,Melanie Gutierrez,Altair Rice,66.68,115.67,49.9,108.86,274.42,Unlimited,SBD,F,
Girls,67.36,4,Emily Mock,Sealy,61.69,106.59,68.04,90.72,265.35,Unlimited,SBD,F,
Girls,67.36,5,Kimberly Hernandes,Altair Rice,61.87,111.13,36.29,111.13,258.55,Unlimited,SBD,F,
Girls,67.36,6,Faith Sledge,Sealy,65.32,113.4,43.09,99.79,256.28,Unlimited,SBD,F,
Girls,67.36,7,Yanira Galvan,La Grange,66.45,102.06,43.09,97.52,242.67,Unlimited,SBD,F,
Girls,67.36,DQ,Breelyn Freeman,Altair Rice,63.5,131.54,61.23,,,Unlimited,SBD,F,
Girls,67.36,DQ,Julissa Barboza,Altair Rice,63.96,,,,,Unlimited,SBD,F,
Girls,75.07,1,Haven Hmielewski,Sealy,69.85,127.01,79.38,115.67,322.05,Unlimited,SBD,F,
Girls,75.07,2,Katry Kobza,Schulenburg,70.22,127.01,61.23,111.13,299.37,Unlimited,SBD,F,
Girls,75.07,3,Faith Thompson,Altair Rice,73.03,127.01,40.82,108.86,276.69,Unlimited,SBD,F,
Girls,75.07,4,Lexi Ybarra,Columbus,74.16,104.33,65.77,106.59,276.69,Unlimited,SBD,F,
Girls,75.07,5,Bianca Veitch,La Grange,74.12,99.79,63.5,108.86,272.16,Unlimited,SBD,F,
Girls,75.07,6,Serryah Simmons,Columbus,74.57,95.25,47.63,113.4,256.28,Unlimited,SBD,F,
Girls,75.07,7,Ashley Villatoro,Brookshire Royal,71.21,97.52,49.9,102.06,249.48,Unlimited,SBD,F,
Girls,75.07,8,Kasey Eggemeyer,Altair Rice,69.4,115.67,38.56,90.72,244.94,Unlimited,SBD,F,
Girls,75.07,DQ,Yocelin Martinez,Columbus,68.95,81.65,43.09,,,Unlimited,SBD,F,
Girls,82.33,1,Lilli Stone,Sealy,80.29,140.61,65.77,136.08,342.46,Unlimited,SBD,F,
Girls,82.33,2,Jessie Whitley,Hallettsville,80.01,122.47,56.7,117.93,297.1,Unlimited,SBD,F,
Girls,82.33,3,Avery Brown,Altair Rice,81.19,104.33,40.82,95.25,240.4,Unlimited,SBD,F,
Girls,90.04,1,Teagan Branch,La Grange,89.4,138.35,86.18,142.88,367.41,Unlimited,SBD,F,
Girls,90.04,2,Marcedes Martinez,Hallettsville,82.74,149.69,74.84,138.35,362.87,Unlimited,SBD,F,
Girls,90.04,3,Abree DeLeon,Hallettsville,89.63,147.42,70.31,111.13,328.85,Unlimited,SBD,F,
Girls,90.04,4,Citlalli Vasquez,Altair Rice,88.9,117.93,45.36,142.88,306.17,Unlimited,SBD,F,
Girls,100.02,1,Katy Whitfield,Burton,91.49,106.59,58.97,127.01,292.57,Unlimited,SBD,F,
Girls,100.02,2,Ewalany Gonzalez,La Grange,91.26,111.13,47.63,97.52,256.28,Unlimited,SBD,F,
Girls,100.02,3,Aundrea Cardenas,Altair Rice,90.26,81.65,34.02,99.79,215.46,Unlimited,SBD,F,
Girls,110,1,Sierra Chapa,Hallettsville,109.81,142.88,90.72,147.42,381.02,Unlimited,SBD,F,
Girls,110,2,Haylee Green,Hallettsville,109.32,149.69,81.65,136.08,367.41,Unlimited,SBD,F,
Girls,110,3,Arianna Vincent,Schulenburg,101.06,122.47,56.7,122.47,301.64,Unlimited,SBD,F,
Girls,110,4,Alejandra Valles,Altair Rice,103.87,95.25,52.16,106.59,254.01,Unlimited,SBD,F,
Girls,110,5,Estrella Gonzalez,Altair Rice,107.95,104.33,36.29,102.06,242.67,Unlimited,SBD,F,
Girls,110+,1,Marlena Nunn,Altair Rice,134.26,201.85,104.33,147.42,453.59,Unlimited,SBD,F,
Girls,110+,2,Breanna Robert,Hallettsville,117.12,142.88,86.18,117.93,347,Unlimited,SBD,F,
Girls,110+,3,Cora Brenek,Schulenburg,111.04,136.08,70.31,136.08,342.46,Unlimited,SBD,F,
