Division,WeightClassKg,Place,Name,Team,BodyweightKg,Best3SquatKg,Best3BenchKg,Best3DeadliftKg,TotalKg,Equipment,Event,Sex,BirthDate
Girls,44.23,1,Angel Lawrence,Waco University,42,68.04,36.29,90.72,195.04,Unlimited,SBD,F,
Girls,44.23,2,Destiny Benavides,Waco University,44.23,61.23,40.82,86.18,188.24,Unlimited,SBD,F,
Girls,44.23,3,Kaitlyn Maus,Lake Belton,43.68,70.31,40.82,74.84,185.97,Unlimited,SBD,F,
Girls,44.23,4,Valeria Perez,Waco University,43.54,72.57,34.02,72.57,179.17,Unlimited,SBD,F,
Girls,47.85,1,Emma Scholz,Lake Belton,46.72,92.99,61.23,92.99,247.21,Unlimited,SBD,F,
Girls,47.85,2,Esmeralda Villa-Corrales,Waco,47.63,92.99,43.09,92.99,229.06,Unlimited,SBD,F,
Girls,47.85,3,Yoselin Juarez Conde,Waco University,46.9,47.63,34.02,74.84,156.49,Unlimited,SBD,F,
Girls,47.85,DQ,Kayleigh Rodgers,Red Oak,45.81,,,,,Unlimited,SBD,F,
Girls,51.94,1,Shekayla Munoz,Lake Belton,49.9,88.45,58.97,102.06,249.48,Unlimited,SBD,F,
Girls,51.94,2,Liliana Grainger,Aquilla,50.53,95.25,52.16,97.52,244.94,Unlimited,SBD,F,
Girls,51.94,3,Aryana Ybarra,Waco Midway,49.08,95.25,56.7,86.18,238.14,Unlimited,SBD,F,
Girls,51.94,4,Sha'Nija Smith,Waco,51.71,88.45,45.36,104.33,238.14,Unlimited,SBD,F,
Girls,51.94,5,Makayla Reyes,Belton,51.26,95.25,40.82,79.38,215.46,Unlimited,SBD,F,
Girls,51.94,6,Analisa Terry,Temple,50.98,77.11,38.56,90.72,206.38,Unlimited,SBD,F,
Girls,51.94,7,Kaylea Lynch,Aquilla,51.8,70.31,40.82,77.11,188.24,Unlimited,SBD,F,
Girls,51.94,8,Sophia Olivero,Belton,51.89,72.57,40.82,70.31,183.7,Unlimited,SBD,F,
Girls,51.94,9,Jackie Avila,Mexia,49.62,70.31,31.75,72.57,174.63,Unlimited,SBD,F,
Girls,51.94,10,Brianna Carrillo,Mexia,51.44,61.23,22.68,65.77,149.69,Unlimited,SBD,F,
Girls,51.94,DQ,Nani Rubio,Temple,51.71,,,,,Unlimited,SBD,F,
Girls,51.94,DQ,Lola Walker,Red Oak,51.71,,,,,Unlimited,SBD,F,
Girls,56.02,1,Scarlytt Cotham,Lake Belton,56.02,113.4,61.23,115.67,290.3,Unlimited,SBD,F,
Girls,56.02,2,Kate Burke,Temple,55.88,113.4,61.23,106.59,281.23,Unlimited,SBD,F,
Girls,56.02,3,Diomien Venegas,Axtell,56.02,104.33,56.7,113.4,274.42,Unlimited,SBD,F,
Girls,56.02,4,Sha'Niya Smith,Waco,55.79,88.45,52.16,104.33,244.94,Unlimited,SBD,F,
Girls,56.02,5,Naomi Hwang,Lake Belton,53.98,86.18,45.36,88.45,219.99,Unlimited,SBD,F,
Girls,56.02,6,Julie He,Belton,54.98,97.52,40.82,79.38,217.72,Unlimited,SBD,F,
Girls,56.02,7,Alexabeth Gomez,Red Oak,54.25,68.04,36.29,77.11,181.44,Unlimited,SBD,F,
Girls,56.02,DQ,Emily Stanfield,Temple,55.79,,,,,Unlimited,SBD,F,
Girls,60.1,1,Natalia Juarez,Waco,59.87,124.74,70.31,117.93,312.98,Unlimited,SBD,F,
Girls,60.1,2,Taylor McCallister,Axtell,59.96,95.25,61.23,117.93,274.42,Unlimited,SBD,F,
Girls,60.1,3,Ava Sanchez,Axtell,60.1,99.79,58.97,99.79,258.55,Unlimited,SBD,F,
Girls,60.1,4,Emily Stout,Waco University,60.1,90.72,47.63,108.86,247.21,Unlimited,SBD,F,
Girls,60.1,5,Cheyenne Kepler,Temple,59.06,88.45,43.09,106.59,238.14,Unlimited,SBD,F,
Girls,60.1,6,Ariunna Wilson,Temple,59.69,86.18,47.63,104.33,238.14,Unlimited,SBD,F,
Girls,60.1,7,Abby Weiss,Belton,58.97,90.72,54.43,83.91,229.06,Unlimited,SBD,F,
Girls,60.1,8,Gabby Boyle,Waco Midway,59.15,88.45,47.63,86.18,222.26,Unlimited,SBD,F,
Girls,60.1,9,Natasha Silva-Reyes,Red Oak,57.15,83.91,34.02,90.72,208.65,Unlimited,SBD,F,
Girls,60.1,10,Kameeyah Lambert,Waco University,57.61,70.31,36.29,77.11,183.7,Unlimited,SBD,F,
Girls,60.1,11,Stephanie Gonzales,Waco University,60.1,65.77,43.09,72.57,181.44,Unlimited,SBD,F,
Girls,60.1,DQ,Ciaran Messersmith,Belton,59.87,,,,,Unlimited,SBD,F,
Girls,60.1,DQ,Madison Snell,Temple,59.87,,,,,Unlimited,SBD,F,
Girls,60.1,DQ,Madison Sapp,Temple,57.06,102.06,56.7,,,Unlimited,SBD,F,
Girls,60.1,DQ,Miranda Fabela,Waco University,56.15,,,,,Unlimited,SBD,F,
Girls,67.36,1,Madyson Updyke,Lake Belton,64.86,147.42,65.77,147.42,360.61,Unlimited,SBD,F,
Girls,67.36,2,Victoria Stout,Axtell,67.13,113.4,61.23,136.08,310.71,Unlimited,SBD,F,
Girls,67.36,3,Jamie Jackson,Temple,65.68,102.06,65.77,122.47,290.3,Unlimited,SBD,F,
Girls,67.36,4,Zaria Webb,Red Oak,61.33,102.06,58.97,124.74,285.76,Unlimited,SBD,F,
Girls,67.36,5,Tatum Vaughn,Lake Belton,67.13,104.33,56.7,113.4,274.42,Unlimited,SBD,F,
Girls,67.36,6,Morgan Arevalo,Axtell,61.05,88.45,65.77,108.86,263.08,Unlimited,SBD,F,
Girls,67.36,7,Ta Zhara Duffey,Waco University,67.36,111.13,36.29,113.4,260.82,Unlimited,SBD,F,
Girls,67.36,8,Janae Beverly,Killeen,67.36,97.52,40.82,117.93,256.28,Unlimited,SBD,F,
Girls,67.36,9,Taylor Thomas,Mexia,66.95,83.91,49.9,115.67,249.48,Unlimited,SBD,F,
Girls,67.36,10,Brayton Torres,Belton,65.95,86.18,56.7,102.06,244.94,Unlimited,SBD,F,
Girls,67.36,11,Aliveyah Thomas,Waco University,63.41,79.38,52.16,106.59,238.14,Unlimited,SBD,F,
Girls,67.36,12,Aislynn Huggins,Belton,62.69,81.65,47.63,102.06,231.33,Unlimited,SBD,F,
Girls,67.36,13,Chloe Watkins,Temple,62.32,86.18,49.9,92.99,229.06,Unlimited,SBD,F,
Girls,67.36,14,Empress Glasker,Waco University,67.36,86.18,45.36,90.72,222.26,Unlimited,SBD,F,
Girls,67.36,15,Maggie Mueller,Waco Midway,63.23,86.18,40.82,92.99,219.99,Unlimited,SBD,F,
Girls,67.36,16,Corabelle Burns,Mexia,65.14,77.11,43.09,97.52,217.72,Unlimited,SBD,F,
Girls,67.36,17,McKinlee Sheddan,Aquilla,65.95,61.23,38.56,102.06,201.85,Unlimited,SBD,F,
Girls,67.36,18,Garay Nayeli,Mexia,64.68,72.57,34.02,92.99,199.58,Unlimited,SBD,F,
Girls,67.36,19,Jade Fritz,Temple,66.95,77.11,40.82,77.11,195.04,Unlimited,SBD,F,
Girls,67.36,DQ,Katie Sinfuegos-Perez,Aquilla,67.13,,,,,Unlimited,SBD,F,
Girls,67.36,DQ,Adelina Linthicum,Belton,67.13,,,,,Unlimited,SBD,F,
Girls,67.36,DQ,Maysen Holland,Axtell,67.13,,,,,Unlimited,SBD,F,
Girls,67.36,DQ,Kennedy Weston,Belton,67.13,,,,,Unlimited,SBD,F,
Girls,67.36,DQ,Jalise Campbell,Killeen,67.13,,,,,Unlimited,SBD,F,
Girls,75.07,1,Azlynn Mueller,Waco Midway,73.75,176.9,68.04,158.76,403.7,Unlimited,SBD,F,
Girls,75.07,2,Victoria Shimabukuro,Lake Belton,72.12,158.76,74.84,151.95,385.55,Unlimited,SBD,F,
Girls,75.07,3,Julia Grisham,Axtell,75.07,154.22,92.99,122.47,369.68,Unlimited,SBD,F,
Girls,75.07,4,Adelaide Blanchard,Axtell,72.12,131.54,79.38,129.27,340.19,Unlimited,SBD,F,
Girls,75.07,5,Hannah Hughes,Axtell,75.07,136.08,70.31,133.81,340.19,Unlimited,SBD,F,
Girls,75.07,6,Bella Gentsch,Waco Midway,70.58,129.27,74.84,129.27,333.39,Unlimited,SBD,F,
Girls,75.07,7,Jennifer Martinez,Waco,74.84,92.99,47.63,124.74,265.35,Unlimited,SBD,F,
Girls,75.07,8,Natashia Avery,Waco University,75.07,95.25,52.16,106.59,254.01,Unlimited,SBD,F,
Girls,75.07,9,Willow Pratt-Sims,Temple,69.31,90.72,49.9,111.13,251.74,Unlimited,SBD,F,
Girls,75.07,10,Arielah Vargas,Temple,69.4,86.18,45.36,120.2,251.74,Unlimited,SBD,F,
Girls,75.07,11,Rachel Truitt,Belton,74.48,97.52,54.43,90.72,242.67,Unlimited,SBD,F,
Girls,75.07,12,Marisela Torres,Waco University,72.94,58.97,36.29,79.38,174.63,Unlimited,SBD,F,
Girls,75.07,DQ,Kamaya Porter,Temple,74.84,,,,,Unlimited,SBD,F,
Girls,75.07,DQ,Erika Saldana,Mexia,74.84,,,,,Unlimited,SBD,F,
Girls,75.07,DQ,Naveah Boulware,Mexia,74.84,,,,,Unlimited,SBD,F,
Girls,75.07,DQ,Isabella Auilar,Waco,74.84,,,,,Unlimited,SBD,F,
Girls,82.33,1,Claire Little,Temple,81.28,145.15,63.5,158.76,367.41,Unlimited,SBD,F,
Girls,82.33,2,Ava Grisham,Axtell,82.33,120.2,70.31,120.2,310.71,Unlimited,SBD,F,
Girls,82.33,3,Aleyna Castor,Lake Belton,75.11,113.4,63.5,129.27,306.17,Unlimited,SBD,F,
Girls,82.33,4,Braelynn Serrato,Waco University,82.1,111.13,65.77,117.93,294.84,Unlimited,SBD,F,
Girls,82.33,5,Ava Massey,Waco Midway,75.48,113.4,61.23,113.4,288.03,Unlimited,SBD,F,
Girls,82.33,6,Haven Crubaugh,Waco Midway,76.29,120.2,61.23,106.59,288.03,Unlimited,SBD,F,
Girls,82.33,7,Riley Clawson,Lake Belton,75.3,99.79,65.77,113.4,278.96,Unlimited,SBD,F,
Girls,82.33,8,Reyna Silva,Mexia,81.28,104.33,58.97,102.06,265.35,Unlimited,SBD,F,
Girls,82.33,9,Joselyn Escobedo,Mexia,80.38,97.52,58.97,99.79,256.28,Unlimited,SBD,F,
Girls,82.33,10,Piper Wood,Killeen,82.33,99.79,45.36,111.13,256.28,Unlimited,SBD,F,
Girls,82.33,11,Ashlinn Baxter,Temple,77.2,95.25,52.16,106.59,254.01,Unlimited,SBD,F,
Girls,82.33,12,Lydia Gilmore,Waco,82.1,90.72,45.36,97.52,233.6,Unlimited,SBD,F,
Girls,82.33,DQ,Cherish Duffey,Waco University,82.33,45.36,,,,Unlimited,SBD,F,
Girls,90.04,1,Jaya Lisenbe,Lake Belton,85.73,142.88,81.65,151.95,376.48,Unlimited,SBD,F,
Girls,90.04,2,Ma'Naja Johnson,Red Oak,86.73,145.15,90.72,140.61,376.48,Unlimited,SBD,F,
Girls,90.04,3,Kaylyn Wolf,Temple,85.09,120.2,70.31,140.61,331.12,Unlimited,SBD,F,
Girls,90.04,4,Mariah Gaines,Temple,82.46,106.59,70.31,120.2,297.1,Unlimited,SBD,F,
Girls,90.04,5,Tasja Latchison,Waco University,90.04,117.93,68.04,111.13,297.1,Unlimited,SBD,F,
Girls,90.04,6,Nicole Wiesman,Lake Belton,89.81,120.2,61.23,104.33,285.76,Unlimited,SBD,F,
Girls,90.04,7,Albanieh Thomas,Waco Midway,83.37,113.4,49.9,113.4,276.69,Unlimited,SBD,F,
Girls,90.04,8,Aracely Martinez- Salas,Waco Midway,90.04,90.72,65.77,111.13,267.62,Unlimited,SBD,F,
Girls,90.04,9,Ginger Evans,Temple,85.09,74.84,52.16,83.91,210.92,Unlimited,SBD,F,
Girls,90.04,10,Isabella Ake,Belton,87.18,74.84,34.02,92.99,201.85,Unlimited,SBD,F,
Girls,90.04,DQ,Aniyah Daniels,Red Oak,86.36,99.79,49.9,115.67,,Unlimited,SBD,F,
Girls,90.04,DQ,Channing Stewart,Temple,89.81,,,,,Unlimited,SBD,F,
Girls,90.04,DQ,Piper Thompson,Waco Midway,86.18,,,,,Unlimited,SBD,F,
Girls,90.04,DQ,Rashey Delesline,Waco,89.81,,,,,Unlimited,SBD,F,
Girls,90.04,DQ,Ciara Chandler,Waco University,90.04,79.38,,,,Unlimited,SBD,F,
Girls,100.02,1,Faith Echols,Waco Midway,95.16,174.63,68.04,142.88,385.55,Unlimited,SBD,F,
Girls,100.02,2,Sophia Gonzales,Waco University,100.02,147.42,83.91,124.74,356.07,Unlimited,SBD,F,
Girls,100.02,3,Estefani Luna,Mexia,96.98,145.15,74.84,127.01,347,Unlimited,SBD,F,
Girls,100.02,4,Michelle Lamar,Lake Belton,98.43,124.74,61.23,124.74,310.71,Unlimited,SBD,F,
Girls,100.02,5,Danielle Esquivel,Lake Belton,96.62,106.59,61.23,108.86,276.69,Unlimited,SBD,F,
Girls,100.02,6,Patricia Brown,Temple,98.43,106.59,65.77,104.33,276.69,Unlimited,SBD,F,
Girls,100.02,7,Aryanna Murry,Red Oak,91.99,88.45,31.75,95.25,215.46,Unlimited,SBD,F,
Girls,100.02,DQ,Rihanna Fuentes,Mexia,99.79,,,,,Unlimited,SBD,F,
Girls,110,1,Emma McCook,Aquilla,109.32,120.2,52.16,124.74,297.1,Unlimited,SBD,F,
Girls,110,2,Olivia Byers,Killeen,110,68.04,45.36,115.67,229.06,Unlimited,SBD,F,
Girls,110,DQ,Kassandra Delarosa,Belton,109.77,,,,,Unlimited,SBD,F,
Girls,110+,1,Terriny Pace,Killeen,111.13,206.38,97.52,185.97,489.88,Unlimited,SBD,F,
Girls,110+,2,Meleana Price,Killeen,111.13,140.61,61.23,147.42,349.27,Unlimited,SBD,F,
Girls,110+,3,Sarah Dix,Waco,140.61,120.2,77.11,142.88,340.19,Unlimited,SBD,F,
Girls,110+,4,Lillyann Walden,Lake Belton,112.94,133.81,58.97,142.88,335.66,Unlimited,SBD,F,
Girls,110+,5,Makayla Dunning,Temple,114.85,120.2,70.31,129.27,319.78,Unlimited,SBD,F,
Girls,110+,6,Jasmine Escobedo,Mexia,117.03,111.13,63.5,104.33,278.96,Unlimited,SBD,F,
Girls,110+,7,Jazmyne Jackson,Waco Midway,133.36,113.4,47.63,113.4,274.42,Unlimited,SBD,F,
Girls,110+,DQ,Te'yani Zollicoffer,Killeen,111.13,,,,,Unlimited,SBD,F,
