Name,Sex,WeightClassKg,BodyweightKg,BirthYear,Division,Team,Squat1Kg,Squat2Kg,Squat3Kg,Best3SquatKg,Bench1Kg,Bench2Kg,Bench3Kg,Best3BenchKg,Deadlift1Kg,Deadlift2Kg,Deadlift3Kg,Best3DeadliftKg,TotalKg,Place,Event,Equipment,BirthDate
Raphael Augner,M,105.00,94.50,1997,Open,Rasselbande Schwerathletik St. Georgen/Gusen,-182.5,190,202.5,202.5,125,135,140,140,210,230,-247.5,230,572.5,4,SBD,Raw,1997-09-15
Jelena Bijelic,F,57.00,52.60,1992,Guest,Team Supakraft KDK Klosterneuburg,110,115,120,120,65,70,75,75,-142.5,142.5,155,155,350,G,SBD,Raw,1992-10-24
Karin Böschl,F,63.00,62.00,1999,Open,Rasselbande Schwerathletik St. Georgen/Gusen,85,95,100,100,50,55,57.5,57.5,,125,130,130,287.5,2,SBD,Raw,1999-05-05
Emma Brucker,F,69.00,68.30,2007,Open,Union Almtaler KSV,70,75,80,80,40,45,47.5,47.5,80,87.5,92.5,92.5,220,4,SBD,Raw,2007-06-19
Elisabeth Buttinger-Kreuzhuber,F,57.00,55.50,1998,Open,KSV Outdoor Fitness Freistadt,-130,-130,130,130,75,82.5,84,84,135,142.5,-155,142.5,356.5,1,SBD,Raw,1998-02-02
Christian Cerenko,M,83.00,78.10,1994,Open,KSV Outdoor Fitness Freistadt,155,162.5,170,170,-92.5,-97.5,-97.5,,200,210,220,220,,DQ,SBD,Raw,1994-08-08
Dana Edinger,F,63.00,61.90,1994,Open,Rasselbande Schwerathletik St. Georgen/Gusen,87.5,95,-100,95,37.5,40,42.5,42.5,115,125,132.5,132.5,270,4,SBD,Raw,1994-09-06
August Eisl,M,105.00,96.60,2000,Open,Rasselbande Schwerathletik St. Georgen/Gusen,155,165,175,175,95,100,105,105,197.5,215,225,225,505,10,SBD,Raw,2000-11-08
Marina Eschlböck,F,52.00,51.70,1991,Open,Rasselbande Schwerathletik St. Georgen/Gusen,75,80,85,85,40,45,47.5,47.5,90,-100,100,100,232.5,1,SBD,Raw,1991-08-30
Thomas Gallner,M,93.00,92.10,2005,Open,ASK Nettingsdorf/KDK,140,150,160,160,80,85,-90,85,170,185,-200,185,430,17,SBD,Raw,2005-01-19
Christoph Gan,M,105.00,94.20,1992,Open,KSV Outdoor Fitness Freistadt,155,162.5,170,170,142.5,145,150,150,195,210,220,220,540,9,SBD,Raw,1992-06-19
Stefanie Obereder,F,84+,122.20,1994,Open,KSV Outdoor Fitness Freistadt,162.5,172.5,182.5,182.5,97.5,105,110.5,110.5,180,190,200,200,493,1,SBD,Raw,1994-03-14
Richard Hager,M,93.00,92.60,1991,Open,Rasselbande Schwerathletik St. Georgen/Gusen,190,200,207.5,207.5,115,122.5,-127.5,122.5,190,205,-215,205,535,9,SBD,Raw,1991-04-03
Klemens Haslehner,M,93.00,92.10,1999,Open,Energy-Fitness Neuhofen/Krems,110,120,127.5,127.5,105,110,-115,110,130,150,165,165,402.5,18,SBD,Raw,1999-11-28
David Himmelbauer,M,93.00,89.80,1992,Open,Rasselbande Schwerathletik St. Georgen/Gusen,225,235,-245,235,140,147.5,155,155,270,285,-302.5,285,675,3,SBD,Raw,1992-06-24
Jürgen Hippesroither,M,120.00,110.80,1978,Open,Athletik Club Wagham,185,190,-200,190,145,-150,-150,145,195,202.5,210,210,545,3,SBD,Raw,1978-12-25
Maximilian Hofer,M,105.00,99.70,1989,Open,KSV Outdoor Fitness Freistadt,172.5,182.5,-190,182.5,107.5,112.5,117.5,117.5,185,197.5,205,205,505,11,SBD,Raw,1989-05-04
Florian Hujber,M,93.00,89.40,1991,Open,KSV Outdoor Fitness Freistadt,157.5,165,172.5,172.5,110,117.5,122.5,122.5,180,190,200,200,495,12,SBD,Raw,1991-12-30
Barbara Hujber,F,57.00,54.80,1991,Open,KSV Outdoor Fitness Freistadt,77.5,82.5,-87.5,82.5,52.5,57.5,-60,57.5,105,112.5,120,120,260,2,SBD,Raw,1991-01-14
Lukas Hummer,M,83.00,81.80,2000,Open,KSV Outdoor Fitness Freistadt,182.5,192.5,200,200,122.5,127.5,132.5,132.5,225,235,-242.5,235,567.5,3,SBD,Raw,2000-05-06
Daniel Iporre Castro,M,93.00,86.90,1990,Guest,Intelligent Strength PL Teesdorf,227.5,240,250,250,150,160,167.5,167.5,245,260,270,270,687.5,G,SBD,Raw,1990-10-14
Thomas Jackl,M,105.00,101.00,1981,Open,ASK Nettingsdorf/KDK,207.5,220,230,230,105,-110,-115,105,235,250,262.5,262.5,597.5,3,SBD,Raw,1981-10-08
Pascal Japek,M,93.00,88.20,1997,Open,Rasselbande Schwerathletik St. Georgen/Gusen,125,135,145,145,90,-100,102.5,102.5,180,-190,190,190,437.5,16,SBD,Raw,1997-10-10
Dominik Just,M,74.00,72.10,1987,Open,KSV Outdoor Fitness Freistadt,150,157.5,165,165,100,107.5,-115,107.5,165,170,182.5,182.5,455,3,SBD,Raw,1987-04-18
Simon Kapfer,M,105.00,102.00,1993,Open,Rasselbande Schwerathletik St. Georgen/Gusen,220,230,242.5,242.5,130,137.5,-140,137.5,270,290,302.5,302.5,682.5,1,SBD,Raw,1993-06-27
Diyar Kaya,M,120.00,109.10,2004,Open,ASK Nettingsdorf/KDK,180,195,210,210,107.5,-115,-115,107.5,200,230,-250,230,547.5,2,SBD,Raw,2004-01-25
Philipp Lehner,M,120.00,118.30,2003,Open,KSV Outdoor Fitness Freistadt,210,222.5,-235,222.5,162.5,170,-177.5,170,260,280,-300,280,672.5,1,SBD,Raw,2003-12-23
Daniela Leitner,F,69.00,67.90,2002,Open,KSV Outdoor Fitness Freistadt,125,130,135,135,62.5,65,67.5,67.5,162.5,-170.5,170.5,170.5,373,1,SBD,Raw,2002-04-11
Kerstin Leuchtenmüller,F,76.00,75.00,1992,Guest,KSV Triumph Wolfsbach,107.5,115,122.5,122.5,-70,70,-75,70,130,142.5,152.5,152.5,345,G,SBD,Raw,1992-10-17
Armin Maislinger,M,83.00,82.40,1999,Guest,Intelligent Strength PL Teesdorf,180,190,200,200,112.5,122.5,130,130,190,200,210,210,540,G,SBD,Raw,1999-08-25
Lukas Mandl,M,93.00,92.40,2004,Open,ASK Nettingsdorf/KDK,150,160,175,175,107.5,112.5,120,120,165,175,182.5,182.5,477.5,14,SBD,Raw,2004-03-30
Phillip-Sebastian Marchl,M,83.00,80.70,1987,Guest,Intelligent Strength PL Teesdorf,160,170,180,180,127.5,135,140,140,-175,190,202.5,202.5,522.5,G,SBD,Raw,1987-10-12
Rene Mühlbachler,M,74.00,72.00,1993,Open,KSV Outdoor Fitness Freistadt,142.5,152.5,160,160,112.5,117.5,-120,117.5,190,205,212.5,212.5,490,2,SBD,Raw,1993-06-02
Markus Öppinger,M,93.00,91.70,1994,Open,KSV Outdoor Fitness Freistadt,180,190,200,200,130,135,140,140,-245,-255,255,255,595,5,SBD,Raw,1994-06-09
Ognjen Pavlovic,M,93.00,88.70,1995,Open,Athletik Club Wagham,145,-152.5,155,155,135,145,-150,145,170,187.5,200,200,500,10,SBD,Raw,1995-05-23
Schirin Pfeneberger,F,63.00,61.90,1990,Open,ASKÖ Vöcklabruck/KDK,90,97.5,-102.5,97.5,50,-55,-55,50,110,115,120,120,267.5,5,SBD,Raw,1990-04-03
Klara Pichler,F,69.00,66.40,2000,Open,KSV Outdoor Fitness Freistadt,75,80,87.5,87.5,57.5,-60,-60,57.5,92.5,102.5,110,110,255,2,SBD,Raw,2000-03-20
Christoph Pogatschnig,M,105.00,100.70,1994,Open,Rasselbande Schwerathletik St. Georgen/Gusen,-165,175,185,185,135,-145,-145,135,190,210,230,230,550,6,SBD,Raw,1994-11-07
Lukas Pöhlmann,M,93.00,85.30,1996,Guest,Intelligent Strength PL Teesdorf,200,215,-225,215,125,132.5,137.5,137.5,242.5,265,275,275,627.5,G,SBD,Raw,1996-10-22
Andreas Polednak,M,93.00,91.50,1989,Open,ASK Nettingsdorf/KDK,222.5,237.5,-245,237.5,160,165,167.5,167.5,275,295,305,305,710,1,SBD,Raw,1989-10-22
Lisa Katharlina Pollak,F,63.00,59.20,1992,Open,KSV Outdoor Fitness Freistadt,130,-137.5,137.5,137.5,90,95,100,100,140,147.5,157.5,157.5,395,1,SBD,Raw,1992-10-05
Simon Prantner,M,93.00,90.70,2001,Open,Rasselbande Schwerathletik St. Georgen/Gusen,195,205,212.5,212.5,100,107.5,110,110,200,212.5,225,225,547.5,8,SBD,Raw,2001-05-20
Michael Pühringer,M,93.00,88.50,1997,Open,KSV Outdoor Fitness Freistadt,230,242.5,252.5,252.5,165,170.5,-175.5,170.5,250,-262.5,265,265,688,2,SBD,Raw,1997-03-09
Daniel Putz,M,83.00,81.50,2002,Open,KSV Outdoor Fitness Freistadt,147.5,160,-167.5,160,100,102.5,105,105,185,195,202.5,202.5,467.5,5,SBD,Raw,2002-03-02
David Rakic,M,74.00,69.90,1999,Guest,Intelligent Strength PL Teesdorf,145,155,165,165,105,115,-122.5,115,175,190,-200,190,470,G,SBD,Raw,1999-10-03
Christian Rohrhofer,M,93.00,93.00,1986,Open,KSV Outdoor Fitness Freistadt,210,220,-225,220,127.5,132.5,137.5,137.5,260,275,-285,275,632.5,4,SBD,Raw,1986-04-02
Michael Ruspeckhofer,M,105.00,97.50,1992,Open,KSV Outdoor Fitness Freistadt,175,187.5,195,195,102.5,110,112.5,112.5,205,220,235,235,542.5,8,SBD,Raw,1992-10-07
Alexander Scharrer,M,105.00,104.10,1994,Open,KSV Outdoor Fitness Freistadt,192.5,205,-215,205,130,-137.5,-137.5,130,210,-220,-220,210,545,7,SBD,Raw,1994-08-02
Alexander Schwarzgruber,M,105.00,97.50,1984,Open,ASK Nettingsdorf/KDK,195,207.5,-215,207.5,125,135,,135,195,210,-225,210,552.5,5,SBD,Raw,1984-06-21
Mario Seifriedsberger,M,74.00,73.60,1988,Open,Athletik Club Wagham,175,185,190,190,125,135,140,140,205,-220,-220,205,535,1,SBD,Raw,1988-07-03
Elias Söser,M,93.00,86.70,2003,Open,Rasselbande Schwerathletik St. Georgen/Gusen,175,187.5,200,200,130,140,145,145,210,225,235,235,580,6,SBD,Raw,2003-06-14
Laura Stadlbauer,F,63.00,59.40,1994,Open,KSV Outdoor Fitness Freistadt,85,90,95,95,62.5,65,67.5,67.5,95,102.5,110,110,272.5,3,SBD,Raw,1994-02-13
Alexander Stadler,M,83.00,82.00,1996,Guest,Intelligent Strength PL Teesdorf,167.5,177.5,-190,177.5,135,140,147.5,147.5,205,222.5,240,240,565,G,SBD,Raw,1996-06-21
Daniel Steinerberger,M,93.00,86.80,1996,Open,KSV Outdoor Fitness Freistadt,140,150,160,160,100,-107.5,112.5,112.5,165,172.5,180,180,452.5,15,SBD,Raw,1996-10-03
Julia Stichenwirth,F,63.00,57.20,1998,Guest,Intelligent Strength PL Teesdorf,110,-120,-120,110,90,,,90,155,,,155,355,G,SBD,Raw,1998-05-30
Felix Supersperger,M,83.00,81.90,2005,Open,Union Almtaler KSV,160,170,-185,170,-102.5,102.5,-110,102.5,225,235,-250,235,507.5,4,SBD,Raw,2005-02-18
Jonathan Thauerböck,M,83.00,78.80,2001,Open,Rasselbande Schwerathletik St. Georgen/Gusen,190,200,210,210,-110,110,117.5,117.5,-225,235,245,245,572.5,2,SBD,Raw,2001-02-14
Samuel Barnabas Thomae,M,66.00,65.50,1997,Open,KSV Outdoor Fitness Freistadt,-130,-130,-130,,85,90,-95,90,185,200,210,210,,DQ,SBD,Raw,1997-07-17
Katharina Tossel,F,69.00,66.70,1996,Open,KSV Outdoor Fitness Freistadt,75,80,85,85,52.5,55,57.5,57.5,87.5,97.5,105,105,247.5,3,SBD,Raw,1996-06-01
Maria Viilukas,F,84+,101.10,1987,Guest,Saiyans Powerlifting Kraftdreikampf Bruck/ Mur,125,-130,132.5,132.5,70,75,77.5,77.5,137.5,152.5,160,160,370,G,SBD,Raw,1987-03-27
Stefan Waldl,M,93.00,89.60,2000,Open,ASK Nettingsdorf/KDK,-160,170,190,190,125,130,-140,130,-220,232.5,240,240,560,7,SBD,Raw,2000-03-26
Florian Wegmaier,M,93.00,91.00,1992,Open,Rasselbande Schwerathletik St. Georgen/Gusen,155,165,172.5,172.5,115,122.5,125,125,182.5,195,202.5,202.5,500,11,SBD,Raw,1992-10-10
Michael Wimmesberger,M,83.00,82.90,1992,Open,Rasselbande Schwerathletik St. Georgen/Gusen,215,230.5,238,238,145,150,-155,150,250,275,293,293,681,1,SBD,Raw,1992-07-06
Philipp Wirth,M,120.00,117.50,1997,Guest,Intelligent Strength PL Teesdorf,225,240,255,255,127.5,135,-145,135,255,280,300,300,690,G,SBD,Raw,1997-03-27
Martin Wögerbauer,M,93.00,85.90,1998,Open,KSV Outdoor Fitness Freistadt,160,167.5,-175,167.5,102.5,110,112.5,112.5,185,195,200,200,480,13,SBD,Raw,1998-06-22
Barbara Zbiral,F,69.00,65.80,1996,Guest,Team Supakraft KDK Klosterneuburg,112.5,117.5,122.5,122.5,67.5,72.5,-77.5,72.5,120,127.5,135,135,330,G,SBD,Raw,1996-02-02
Florian Zopf,M,105.00,99.90,1994,Open,ASKÖ Vöcklabruck/KDK,220,235,245,245,145,155,-160,155,260,280,-300,280,680,2,SBD,Raw,1994-12-20
Phillip Nikolic,M,120+,126.50,2004,Open,Energy-Fitness Neuhofen/Krems,250,-260,260,260,160,165,170,170,235,250,260,260,690,1,SBD,Raw,2004-09-23
